[
    {
        "name"      : "sql",
        "stateless" : false,
        "min"       : 1521,
        "max"       : 1522,
        "protocol"  : 6,
        "description": "Oracle SQL interface"
    },{
        "name"      : "kibana",
        "stateless" : false,
        "min"       : 5601,
        "max"       : 5601,
        "protocol"  : 6,
        "description": "Kibana Web GUI to display data"
    },{
        "name"      : "elasticsearch",
        "stateless" : false,
        "min"       : 9200,
        "max"       : 9200,
        "protocol"  : 6,
        "description": "Elasticsearch REST API for loading of demo data"
    }
]
